Quick Start in Using the z11 package • z11
…
Suppose we do not want to work with raster data. Instead, we aim to use the raster grid cell’s centroid coordinates. In that case, we can also load the data as a simple features data frame with point geometries as specified in the sf package by simply using the option as_raster:

immigrants_1km_sf <-
  z11::z11_get_1km_attribute(Auslaender_A, as_raster = FALSE)

Here we go:

immigrants_1km_sf
#> Simple feature collection with 361478 features and 1 field
#> geometry type:  POINT
#> dimension:      XY
#> bbox:           xmin: 4031500 ymin: 2684500 xmax: 4672500 ymax: 3551500
#> projected CRS:  ETRS89-extended / LAEA Europe
#> # A tibble: 361,478 x 2
#>    Auslaender_A          geometry
#>           <dbl>       <POINT [m]>
#>  1           -1 (4334500 2684500)
#>  2           -1 (4335500 2684500)
#>  3           -1 (4336500 2684500)
#>  4           -1 (4337500 2684500)
#>  5           -1 (4338500 2684500)
#>  6           -1 (4339500 2684500)
#>  7           -1 (4334500 2685500)
#>  8           -1 (4335500 2685500)
#>  9           -1 (4336500 2685500)
#> 10           -1 (4337500 2685500)
#> # … with 361,468 more rows
…
If you wish to work with the data in a vector format, you can also use the as_raster option in the z11::z11_get_100m_attribute() function:

immigrants_100m_sf <-
  z11::z11_get_100m_attribute(STAATSANGE_KURZ_2, as_raster = FALSE)

See:

immigrants_1km_sf
#> Simple feature collection with 361478 features and 1 field
#> geometry type:  POINT
#> dimension:      XY
#> bbox:           xmin: 4031500 ymin: 2684500 xmax: 4672500 ymax: 3551500
#> projected CRS:  ETRS89-extended / LAEA Europe
#> # A tibble: 361,478 x 2
#>    Auslaender_A          geometry
#>           <dbl>       <POINT [m]>
#>  1           -1 (4334500 2684500)
#>  2           -1 (4335500 2684500)
#>  3           -1 (4336500 2684500)
#>  4           -1 (4337500 2684500)
#>  5           -1 (4338500 2684500)
#>  6           -1 (4339500 2684500)
#>  7           -1 (4334500 2685500)
#>  8           -1 (4335500 2685500)
#>  9           -1 (4336500 2685500)
#> 10           -1 (4337500 2685500)
#> # … with 361,468 more rows
…
